<svg xmlns="http://www.w3.org/2000/svg" width="16" height="16" viewBox="0 0 16 16">
  <g id="Groupe_1140" data-name="Groupe 1140" transform="translate(-1875 -306.001)">
    <g id="Groupe_704" data-name="Groupe 704" transform="translate(1922 263.725)">
      <rect id="Rectangle_114" data-name="Rectangle 114" width="1" height="1" transform="translate(-40 52.276)" fill="#fbfdfe"/>
      <rect id="Rectangle_115" data-name="Rectangle 115" width="1" height="1" transform="translate(-40 54.276)" fill="#fbfdfe"/>
      <path id="Tracé_9892" data-name="Tracé 9892" d="M155.5,510.214a1.4,1.4,0,0,1-.081.469h1.942a1.4,1.4,0,0,1-.081-.469v-.937H155.5Zm0,0" transform="translate(-196.096 -452.406)" fill="#fbfdfe"/>
      <g id="Groupe_1144" data-name="Groupe 1144">
        <g id="Groupe_1143" data-name="Groupe 1143">
          <g id="Groupe_1142" data-name="Groupe 1142">
            <g id="Groupe_1141" data-name="Groupe 1141">
              <path id="Tracé_9890" data-name="Tracé 9890" d="M245.469,222.276a.469.469,0,0,0-.469.469v9.438a.469.469,0,0,0,.469.469h5.938a.469.469,0,0,0,.469-.469v-9.437a.469.469,0,0,0-.469-.469Zm1.563,8.344a.469.469,0,0,1-.937,0v-6.312a.469.469,0,0,1,.938,0Zm1.875,0a.469.469,0,0,1-.937,0v-6.312a.469.469,0,0,1,.938,0Zm1.875,0a.469.469,0,0,1-.937,0v-6.312a.469.469,0,0,1,.938,0Zm0,0" transform="translate(-282.875 -174.375)" fill="#fbfdfe"/>
              <path id="Tracé_9891" data-name="Tracé 9891" d="M-42,84.276h-4.531a.469.469,0,0,0-.469.469v13.75a.469.469,0,0,0,.469.469H-42a.469.469,0,0,0,.469-.469V84.745A.469.469,0,0,0-42,84.276Zm-2.75,12.656a.469.469,0,0,1-.469.469.469.469,0,0,1-.469-.469v-.625a.469.469,0,0,1,.469-.469.469.469,0,0,1,.469.469Zm0-2.5a.469.469,0,0,1-.469.469.469.469,0,0,1-.469-.469v-.625a.469.469,0,0,1,.469-.469.469.469,0,0,1,.469.469Zm0-2.5a.469.469,0,0,1-.469.469.469.469,0,0,1-.469-.469v-.625a.469.469,0,0,1,.469-.469.469.469,0,0,1,.469.469Zm0-2.5a.469.469,0,0,1-.469.469.469.469,0,0,1-.469-.469v-.625a.469.469,0,0,1,.469-.469.469.469,0,0,1,.469.469Zm0-2.5a.469.469,0,0,1-.469.469.469.469,0,0,1-.469-.469v-.625a.469.469,0,0,1,.469-.469.469.469,0,0,1,.469.469Zm1.875,10a.469.469,0,0,1-.469.469.469.469,0,0,1-.469-.469v-.625a.469.469,0,0,1,.469-.469.469.469,0,0,1,.469.469Zm0-2.5a.469.469,0,0,1-.469.469.469.469,0,0,1-.469-.469v-.625a.469.469,0,0,1,.469-.469.469.469,0,0,1,.469.469Zm0-2.5a.469.469,0,0,1-.469.469.469.469,0,0,1-.469-.469v-.625a.469.469,0,0,1,.469-.469.469.469,0,0,1,.469.469Zm0-2.5a.469.469,0,0,1-.469.469.469.469,0,0,1-.469-.469v-.625a.469.469,0,0,1,.469-.469.469.469,0,0,1,.469.469Zm0-2.5a.469.469,0,0,1-.469.469.469.469,0,0,1-.469-.469v-.625a.469.469,0,0,1,.469-.469.469.469,0,0,1,.469.469Zm0,0" transform="translate(0 -40.688)" fill="#fbfdfe"/>
              <rect id="Rectangle_113" data-name="Rectangle 113" width="1" height="2" transform="translate(-40 49.276)" fill="#fbfdfe"/>
              <path id="Tracé_9893" data-name="Tracé 9893" d="M170.875,46.964h5.25V42.745a.469.469,0,0,0-.469-.469h-7.187a.469.469,0,0,0-.469.469V48.9h1.469V48.37a1.408,1.408,0,0,1,1.406-1.406Zm-.687-3.75h3.75a.469.469,0,0,1,0,.938h-3.75a.469.469,0,0,1,0-.937Zm0,1.875h3.75a.469.469,0,0,1,0,.938h-3.75a.469.469,0,0,1,0-.937Zm0,0" transform="translate(-208.281)" fill="#fbfdfe"/>
            </g>
          </g>
        </g>
      </g>
    </g>
  </g>
</svg>
