<svg xmlns="http://www.w3.org/2000/svg" width="69" height="65" viewBox="0 0 69 65">
  <g id="Groupe_1145" data-name="Groupe 1145" transform="translate(-368.25 -253.249)">
    <rect id="Rectangle_142" data-name="Rectangle 142" width="69" height="65" rx="32.5" transform="translate(368.25 253.249)" fill="#0093de"/>
    <g id="Groupe_758" data-name="Groupe 758" transform="translate(384.25 267.249)">
      <path id="Tracé_149" data-name="Tracé 149" d="M15.854,31.707A15.854,15.854,0,1,1,31.707,15.854,15.872,15.872,0,0,1,15.854,31.707Zm0-28.781A12.927,12.927,0,1,0,28.78,15.854,12.942,12.942,0,0,0,15.854,2.927Z" fill="#fff"/>
      <path id="Tracé_150" data-name="Tracé 150" d="M360.9,362.363a1.458,1.458,0,0,1-1.035-.429l-8.39-8.39a1.463,1.463,0,1,1,2.069-2.069l8.39,8.39a1.463,1.463,0,0,1-1.035,2.5Z" transform="translate(-326.363 -326.363)" fill="#fff"/>
    </g>
  </g>
</svg>
