<svg xmlns="http://www.w3.org/2000/svg" width="33" height="33" viewBox="0 0 33 33">
  <path id="Tracé_70" data-name="Tracé 70" d="M201.5,308.89a16.5,16.5,0,1,0,16.5,16.5,16.5,16.5,0,0,0-16.5-16.5Zm7.844,11.874-1.567,1.568-3.191-3.19-1.21,1.21,3.19,3.19-6.068,6.067-1.757,1.757-3.19-3.189-1.21,1.21,3.19,3.19-.779.78-.015-.015a.619.619,0,0,1-.394.283l-2.975.663a.639.639,0,0,1-.135.015.618.618,0,0,1-.6-.753l.663-2.974a.621.621,0,0,1,.284-.394l-.016-.015,12.592-12.592a.472.472,0,0,1,.669,0l2.521,2.521a.472.472,0,0,1,0,.669Zm0,0" transform="translate(-185 -308.89)" fill="#0093de"/>
</svg>
