<svg xmlns="http://www.w3.org/2000/svg" width="13" height="11" viewBox="0 0 13 11">
  <path id="Polygone_2" data-name="Polygone 2" d="M5.639,1.457a1,1,0,0,1,1.722,0l4.748,8.034A1,1,0,0,1,11.248,11h-9.5A1,1,0,0,1,.892,9.491Z" transform="translate(13 11) rotate(180)" fill="#9fc5c3"/>
</svg>
