<svg xmlns="http://www.w3.org/2000/svg" width="33" height="33" viewBox="0 0 33 33">
  <g id="Groupe_1141" data-name="Groupe 1141" transform="translate(-249.659 -491.5)">
    <circle id="Ellipse_44" data-name="Ellipse 44" cx="16.5" cy="16.5" r="16.5" transform="translate(249.659 491.5)" fill="#0093de"/>
    <g id="Groupe_9" data-name="Groupe 9" transform="translate(260.153 499.385)">
      <path id="Tracé_174" data-name="Tracé 174" d="M152.185,231.794h-2.618v-.476a1.428,1.428,0,0,0-1.428-1.428h-1.9a1.428,1.428,0,0,0-1.428,1.428v.476H142.19a1.19,1.19,0,0,0-1.19,1.19v.952a.476.476,0,0,0,.476.476H152.9a.476.476,0,0,0,.476-.476v-.952a1.19,1.19,0,0,0-1.19-1.19Zm-6.425-.476a.477.477,0,0,1,.476-.476h1.9a.477.477,0,0,1,.476.476v.476H145.76Zm0,0" transform="translate(-141 -229.89)" fill="#fbfdfe"/>
      <path id="Tracé_175" data-name="Tracé 175" d="M160.171,367.89a.149.149,0,0,0-.149.156l.393,8.241a1.426,1.426,0,0,0,1.426,1.36h7.228a1.426,1.426,0,0,0,1.426-1.36l.393-8.241a.149.149,0,0,0-.149-.156Zm7.188,1.19a.476.476,0,0,1,.952,0v6.187a.476.476,0,0,1-.952,0Zm-2.38,0a.476.476,0,0,1,.952,0v6.187a.476.476,0,0,1-.952,0Zm-2.38,0a.476.476,0,0,1,.952,0v6.187a.476.476,0,0,1-.952,0Zm0,0" transform="translate(-159.268 -362.417)" fill="#fbfdfe"/>
    </g>
  </g>
</svg>
