<svg id="Groupe_767" data-name="Groupe 767" xmlns="http://www.w3.org/2000/svg" width="18" height="18" viewBox="0 0 18 18">
  <path id="Tracé_91" data-name="Tracé 91" d="M302.4,3.073a1.572,1.572,0,0,0-.464-1.119L300.441.464A1.617,1.617,0,0,0,299.313,0h-.091V3.164H302.4V3.073Z" transform="translate(-288.702)" fill="#fff"/>
  <path id="Tracé_92" data-name="Tracé 92" d="M12.309,13.553l-1.677.56-.255.014A1.318,1.318,0,0,1,9.127,12.39l.5-1.508a2.117,2.117,0,0,1,.507-.823L13.708,6.5V4.219H10a.513.513,0,0,1-.51-.527V0H1.582A1.584,1.584,0,0,0,0,1.582V16.418A1.584,1.584,0,0,0,1.582,18h10.53a1.6,1.6,0,0,0,1.6-1.582V12.482l-.58.565A2.1,2.1,0,0,1,12.309,13.553ZM2.637,5.273H10a.527.527,0,1,1,0,1.055H2.637a.527.527,0,1,1,0-1.055Zm0,2.109H7.893a.527.527,0,1,1,0,1.055H2.637a.527.527,0,1,1,0-1.055Zm0,2.109H7.893a.527.527,0,0,1,0,1.055H2.637a.527.527,0,0,1,0-1.055Zm-.527,2.637a.527.527,0,0,1,.527-.527H7.893a.527.527,0,1,1,0,1.055H2.637A.527.527,0,0,1,2.109,12.129ZM10,15.82H6.838a.527.527,0,1,1,0-1.055H10a.527.527,0,1,1,0,1.055Z" fill="#fff"/>
  <path id="Tracé_93" data-name="Tracé 93" d="M288.01,324.518l1.376-.459-1.25-1.25-.459,1.376A.264.264,0,0,0,288.01,324.518Z" transform="translate(-277.55 -311.459)" fill="#fff"/>
  <path id="Tracé_94" data-name="Tracé 94" d="M318.82,202.78l1.5,1.5,3.473-3.473-1.5-1.5Z" transform="translate(-307.611 -192.3)" fill="#fff"/>
  <path id="Tracé_95" data-name="Tracé 95" d="M441.082,148.242a1.1,1.1,0,0,0-1.5,0l-.766.766,1.5,1.5.766-.766A1.061,1.061,0,0,0,441.082,148.242Z" transform="translate(-423.392 -142.748)" fill="#fff"/>
  <path id="Tracé_96" data-name="Tracé 96" d="M503.215,198.611c.014-.014.014-.014,0,0Z" transform="translate(-485.524 -191.619)" fill="#fff"/>
</svg>
