<svg xmlns="http://www.w3.org/2000/svg" xmlns:xlink="http://www.w3.org/1999/xlink" width="25" height="25" viewBox="0 0 25 25">
  <defs>
    <clipPath id="clip-path">
      <rect id="Rectangle_10" data-name="Rectangle 10" width="25" height="25" fill="#fff"/>
    </clipPath>
  </defs>
  <g id="Groupe_981" data-name="Groupe 981" transform="translate(-115 -237.89)">
    <g id="Groupe_25" data-name="Groupe 25" transform="translate(115 237.89)">
      <g id="Groupe_24" data-name="Groupe 24" transform="translate(0 0)" clip-path="url(#clip-path)">
        <path id="Tracé_70" data-name="Tracé 70" d="M189.959,243.369a5.479,5.479,0,1,1-5.479-5.479,5.479,5.479,0,0,1,5.479,5.479Zm0,0" transform="translate(-174.616 -237.89)" fill="#fff"/>
        <path id="Tracé_71" data-name="Tracé 71" d="M127.64,439.534a21.261,21.261,0,0,0,0-6.137l.887-1.534a2.748,2.748,0,0,1,2.374-1.37,2.812,2.812,0,0,1,.4.028,2.8,2.8,0,0,1,.127-.26,5.166,5.166,0,0,0-1.9-.372h-9.315A5.212,5.212,0,0,0,115,435.1v3.836a.822.822,0,0,0,.822.822h11.944Zm0,0" transform="translate(-115 -416.739)" fill="#fff"/>
        <path id="Tracé_72" data-name="Tracé 72" d="M335.5,451.883a3.985,3.985,0,0,0,.052-.514,4.158,4.158,0,0,0-.052-.514l.988-.747a.549.549,0,0,0,.144-.711l-.887-1.534a.548.548,0,0,0-.687-.231l-1.137.479a4.073,4.073,0,0,0-.9-.533l-.151-1.207a.549.549,0,0,0-.543-.48h-1.772a.548.548,0,0,0-.543.48l-.151,1.207a4.088,4.088,0,0,0-.9.533l-1.137-.479a.547.547,0,0,0-.687.231l-.886,1.534a.549.549,0,0,0,.143.711l.988.747a3.97,3.97,0,0,0-.052.514,4.153,4.153,0,0,0,.052.514l-.988.747a.548.548,0,0,0-.143.711l.886,1.535a.548.548,0,0,0,.687.231l1.137-.48a4.071,4.071,0,0,0,.9.534l.151,1.207a.547.547,0,0,0,.542.48h1.772a.548.548,0,0,0,.543-.48l.151-1.207a4.089,4.089,0,0,0,.9-.534l1.137.479a.547.547,0,0,0,.687-.231l.886-1.535a.549.549,0,0,0-.143-.711Zm-4.058,1.678a2.192,2.192,0,1,1,2.192-2.192,2.191,2.191,0,0,1-2.192,2.192Zm0,0" transform="translate(-311.719 -431.643)" fill="#fff"/>
      </g>
    </g>
  </g>
</svg>
