<svg xmlns="http://www.w3.org/2000/svg" width="33" height="33" viewBox="0 0 33 33">
  <g id="Groupe_1146" data-name="Groupe 1146" transform="translate(-749.584 -586.934)">
    <circle id="Ellipse_156" data-name="Ellipse 156" cx="16.5" cy="16.5" r="16.5" transform="translate(749.584 586.934)" fill="#0093dd"/>
    <text id="cv" transform="translate(759.584 606.934)" fill="#fff" stroke="#f5f5f5" stroke-width="1" font-size="13" font-family="SegoeUI, Segoe UI"><tspan x="0" y="0">cv</tspan></text>
  </g>
</svg>
