<svg xmlns="http://www.w3.org/2000/svg" width="18" height="18.038" viewBox="0 0 18 18.038">
  <path id="Tracé_9932" data-name="Tracé 9932" d="M82.091,180.673a7.763,7.763,0,0,0,4.675,4.675,1.713,1.713,0,0,0,1.978-1.079h0a1.674,1.674,0,0,1,2.787-.629l2.517,2.517a1.8,1.8,0,0,1,0,2.427l-1.708,1.708c-1.8,1.8-6.563-.18-10.788-4.405s-6.113-8.99-4.405-10.788l1.708-1.708a1.8,1.8,0,0,1,2.427,0l2.517,2.517a1.674,1.674,0,0,1-.629,2.787h0A1.629,1.629,0,0,0,82.091,180.673Z" transform="translate(-76.52 -172.919)" fill="#0093de"/>
</svg>
