<svg xmlns="http://www.w3.org/2000/svg" width="33" height="33" viewBox="0 0 33 33">
  <g id="Groupe_764" data-name="Groupe 764" transform="translate(-149 -438)">
    <circle id="Ellipse_69" data-name="Ellipse 69" cx="16.5" cy="16.5" r="16.5" transform="translate(149 438)" fill="#0093de"/>
    <g id="Groupe_621" data-name="Groupe 621" transform="translate(-43.687 156.654)">
      <rect id="Rectangle_99" data-name="Rectangle 99" width="7.17" height="1.16" transform="translate(204.169 293.809)" fill="#fbfdfe"/>
      <path id="Tracé_181" data-name="Tracé 181" d="M214.187,301.853a2.535,2.535,0,1,0-4,.549,2.515,2.515,0,0,0,1.79.74,2.557,2.557,0,0,0,1.251-.328l2.84,2.84.957-.96Zm-1.135-.179a1.554,1.554,0,0,1-2.135,0,1.51,1.51,0,0,1,2.135-2.135,1.51,1.51,0,0,1,0,2.135Zm0,0" transform="translate(0.66 0.691)" fill="#fbfdfe"/>
      <path id="Tracé_182" data-name="Tracé 182" d="M213.422,304.471h-10a.286.286,0,0,1-.285-.285V291.7a.286.286,0,0,1,.285-.285h10a.286.286,0,0,1,.285.285v6.371a3,3,0,0,1,1.14.518V291.7a1.427,1.427,0,0,0-1.425-1.424h-10A1.43,1.43,0,0,0,202,291.7v12.486a1.428,1.428,0,0,0,1.425,1.425h10c.6,0,.876-.14,1.089-.66l-.514-.518a1.494,1.494,0,0,1-.575.038Zm0,0" fill="#fbfdfe"/>
      <rect id="Rectangle_100" data-name="Rectangle 100" width="7.17" height="1.16" transform="translate(204.169 297.084)" fill="#fbfdfe"/>
    </g>
  </g>
</svg>
