<svg xmlns="http://www.w3.org/2000/svg" xmlns:xlink="http://www.w3.org/1999/xlink" width="25" height="25" viewBox="0 0 25 25">
  <g id="Groupe_1112" data-name="Groupe 1112" transform="translate(-1874 -575)">
    <image id="discount" width="25" height="25" transform="translate(1874 575)" xlink:href="Groupe%201112-image.png"/>
  </g>
</svg>
