<svg xmlns="http://www.w3.org/2000/svg" width="33" height="33" viewBox="0 0 33 33">
  <g id="Groupe_761" data-name="Groupe 761" transform="translate(0 0)">
    <path id="Tracé_177" data-name="Tracé 177" d="M57.5,165.89A16.5,16.5,0,1,0,74,182.39a16.518,16.518,0,0,0-16.5-16.5Zm7.219,17.875H58.875v5.844a1.375,1.375,0,1,1-2.75,0v-5.844H50.281a1.375,1.375,0,0,1,0-2.75h5.844v-5.844a1.375,1.375,0,1,1,2.75,0v5.844h5.844a1.375,1.375,0,0,1,0,2.75Zm0,0" transform="translate(-41 -165.89)" fill="#0092dd"/>
  </g>
</svg>
