<svg xmlns="http://www.w3.org/2000/svg" xmlns:xlink="http://www.w3.org/1999/xlink" width="147" height="147" viewBox="0 0 147 147">
  <defs>
    <filter id="Rectangle_96" x="0" y="0" width="147" height="147" filterUnits="userSpaceOnUse">
      <feOffset dy="3" input="SourceAlpha"/>
      <feGaussianBlur stdDeviation="15" result="blur"/>
      <feFlood flood-color="#0093dd" flood-opacity="0.129"/>
      <feComposite operator="in" in2="blur"/>
      <feComposite in="SourceGraphic"/>
    </filter>
  </defs>
  <g id="Groupe_1146" data-name="Groupe 1146" transform="translate(-1414.5 -219.5)">
    <g id="Groupe_755" data-name="Groupe 755" transform="translate(-89.5 69.5)">
      <g transform="matrix(1, 0, 0, 1, 1504, 150)" filter="url(#Rectangle_96)">
        <rect id="Rectangle_96-2" data-name="Rectangle 96" width="57" height="57" rx="11" transform="translate(45 42)" fill="#e6be90"/>
      </g>
      <g id="Groupe_1145" data-name="Groupe 1145">
        <g id="Groupe_1144" data-name="Groupe 1144">
          <g id="Groupe_1143" data-name="Groupe 1143">
            <g id="Groupe_620" data-name="Groupe 620" transform="translate(1568.666 123.39)">
              <path id="Tracé_179" data-name="Tracé 179" d="M20.384,95.827H10.117V85.559a1.283,1.283,0,0,0-2.567,0V95.827H-2.717A1.284,1.284,0,0,0-4,97.11a1.284,1.284,0,0,0,1.283,1.284H7.551V108.66a1.283,1.283,0,1,0,2.567,0V98.393H20.384a1.283,1.283,0,1,0,0-2.567Zm0,0" fill="#fbfdfe"/>
            </g>
          </g>
        </g>
      </g>
    </g>
  </g>
</svg>
