<svg xmlns="http://www.w3.org/2000/svg" width="16" height="19" viewBox="0 0 16 19">
  <path id="Polygone_13" data-name="Polygone 13" d="M6.92,4.345a3,3,0,0,1,5.159,0l4.23,7.124A3,3,0,0,1,13.73,16H5.27a3,3,0,0,1-2.58-4.532Z" transform="translate(0 19) rotate(-90)" fill="#008ad1"/>
</svg>
