<svg xmlns="http://www.w3.org/2000/svg" width="35" height="35" viewBox="0 0 35 35">
  <g id="Groupe_1145" data-name="Groupe 1145" transform="translate(-856 -482)">
    <circle id="Ellipse_198" data-name="Ellipse 198" cx="17.5" cy="17.5" r="17.5" transform="translate(856 482)" fill="#0093de"/>
    <path id="Tracé_10110" data-name="Tracé 10110" d="M18.731,2.352,16.979.6h0a2.055,2.055,0,0,0-2.9,0L1.042,13.636a.577.577,0,0,0-.156.3L.01,18.663a.566.566,0,0,0,.66.66l4.73-.876a.577.577,0,0,0,.3-.156L18.731,5.256A2.052,2.052,0,0,0,18.731,2.352ZM5.3,17.089,2.243,14.036,13.39,2.888l3.053,3.053ZM1.8,15.2,4.135,17.53l-2.861.53ZM17.93,4.455l-.686.686L14.191,2.087l.686-.686a.921.921,0,0,1,1.3,0L17.93,3.154A.92.92,0,0,1,17.93,4.455Z" transform="translate(863.667 490)" fill="#fbfdfe"/>
  </g>
</svg>
